[0] -> +5 Dexterity Vest, -39, 0
[1] -> Aged Brie, -47, 50
[2] -> Elixir of the Mongoose, -44, 0
[3] -> Sulfuras, Hand of Ragnaros, 0, 80
[4] -> Sulfuras, Hand of Ragnaros, -1, 80
[5] -> Backstage passes to a TAFKAL80ETC concert, -34, 0
[6] -> Backstage passes to a TAFKAL80ETC concert, -39, 0
[7] -> Backstage passes to a TAFKAL80ETC concert, -44, 0
[8] -> Conjured Mana Cake, -46, 0
